<?xml version="1.0" encoding="UTF-8"?>
<svg width="37.519mm" height="9.2668mm" version="1.1" viewBox="0 0 132.94 32.834" xmlns="http://www.w3.org/2000/svg">
 <path d="m5.2035-0.011454c-0.65588 0-1.2134 0.47515-1.3157 1.1226l-3.8777 24.579c-0.07706 0.4849 0.29855 0.92178 0.79047 0.92178h4.5755c0.65587 0 1.2134-0.47632 1.3157-1.1252l1.0454-6.6302c0.10096-0.64888 0.66127-1.1252 1.3157-1.1252h3.0332c6.3136 0 9.958-3.0555 10.91-9.1098 0.42884-2.6487 0.0173-4.7299-1.223-6.1873-1.3622-1.6004-3.7776-2.4461-6.9854-2.4461h-9.5835zm119.29 1.0093a0.55144 0.55144 0 0 0-0.54843 0.55361 0.55144 0.55144 0 0 0 0.54843 0.551h1.0814v3.4143a0.55144 0.55144 0 0 0 0.5536 0.54844 0.55144 0.55144 0 0 0 0.55102-0.54844v-3.4143h0.981a0.55144 0.55144 0 0 0 0.55101-0.551 0.55144 0.55144 0 0 0-0.55101-0.55361zm4.3438 0.0567a0.5515 0.5515 0 0 0-0.14678 0.0127 0.5515 0.5515 0 0 0-0.43 0.53556v3.852a0.55144 0.55144 0 0 0 0.55103 0.551 0.55144 0.55144 0 0 0 0.54843-0.551v-1.3904l0.74413 1.5783a0.5515 0.5515 0 0 0 0.99903 3e-3l0.73384-1.5371v1.3466a0.55144 0.55144 0 0 0 0.55359 0.55101 0.55144 0.55144 0 0 0 0.55101-0.55101v-3.7773a0.5515 0.5515 0 0 0-1.048-0.23946l-1.2848 2.6856-1.3003-2.755a0.5515 0.5515 0 0 0-0.47119-0.31411zm-118.28 4.2511h0.6643c1.7308 0 3.3636 3e-3 4.2072 0.98873 0.50311 0.5886 0.65803 1.462 0.46604 2.6701-0.52413 3.4392-3.1521 3.44-5.693 3.44h-1.447l1.0145-6.4242c0.06033-0.38819 0.3955-0.67459 0.7879-0.67459zm21.557 3.1156c-5.0719 0-9.4041 3.8423-10.248 9.2307-0.43865 2.688 0.18493 5.2575 1.7097 7.0498 1.3987 1.6481 3.3995 2.3354 5.7805 2.3354 4.0866 0 6.3546-2.6264 6.3546-2.6264l-0.20598 1.2746c-0.07706 0.4877 0.29879 0.92435 0.7879 0.92435h4.1352c0.65727 0 1.212-0.47633 1.3157-1.1252l2.4796-15.709c0.07847-0.48349-0.29482-0.92178-0.78532-0.92178h-4.591c-0.39101 0-0.72765 0.2864-0.78791 0.6746l-0.20341 1.2823-0.32185-0.46347c-0.99362-1.4421-3.2085-1.9259-5.4201-1.9259zm15.184 0.43258c-0.55077 0-0.93218 0.53715-0.757 1.0557l5.0802 14.911-4.7763 6.7409c-0.37558 0.53114 0.0028 1.2617 0.65144 1.2617h4.6064c0.43726 0 0.84625-0.21286 1.0943-0.57162l15.34-22.143c0.36717-0.52976-0.01125-1.254-0.65658-1.254h-4.6115c-0.44006 0-0.85257 0.21872-1.102 0.58449l-6.3624 9.3698-2.6958-9.0042c-0.16959-0.56338-0.68851-0.95011-1.2771-0.95011h-4.5343zm-14.094 4.4364c1.3033 0 2.3635 0.43174 3.0614 1.2488 0.69932 0.82544 0.97543 1.9771 0.77503 3.2469-0.44287 2.6222-2.5237 4.3823-5.1779 4.3823-1.3328 0-2.3981-0.42588-3.0821-1.2359-0.6783-0.80443-0.93677-1.951-0.72095-3.2262 0.41342-2.5996 2.5309-4.4159 5.1444-4.4159z" fill="#253b80" stroke-width=".03643"/>
 <path d="m118-0.011454c-0.391 1e-3 -0.72506 0.28899-0.78533 0.67717l-3.9343 25.028c-0.0771 0.4849 0.29879 0.92178 0.7879 0.92178h3.9549c0.65727 0 1.2148-0.47632 1.3157-1.1252l3.8778-24.576c0.077-0.48489-0.29881-0.92436-0.78792-0.92436h-4.4287zm-44.432 3e-3c-0.65447 0-1.2134 0.47515-1.3157 1.1226l-3.8751 24.579c-0.07706 0.48489 0.2988 0.92177 0.78791 0.92177h4.9179c0.45688 0 0.84776-0.33383 0.91922-0.78789l1.102-6.9674c0.10096-0.64888 0.65869-1.1252 1.3132-1.1252h3.0332c6.3148 0 9.9566-3.0555 10.91-9.1098 0.43024-2.6487 0.0173-4.7299-1.223-6.1873-1.3608-1.6004-3.7751-2.4461-6.9829-2.4461h-9.5861zm5.3582 5.317h0.66174c1.7293 0 3.3636 1e-3 4.2072 0.98873 0.50312 0.5886 0.65547 1.462 0.46347 2.6701-0.52273 3.4392-3.1507 3.44-5.693 3.44h-1.4444l1.017-6.4242c0.06033-0.38819 0.39409-0.67459 0.7879-0.67459zm21.557 3.1156c-5.0719 0-9.4016 3.8423-10.245 9.2307-0.43725 2.688 0.18234 5.2575 1.7071 7.0498 1.4014 1.6481 3.3995 2.3354 5.7805 2.3354 4.0866 0 6.3546-2.6264 6.3546-2.6264l-0.20599 1.2746c-0.0771 0.4877 0.29857 0.92435 0.79048 0.92435h4.1325c0.65448 0 1.2134-0.47634 1.3157-1.1252l2.4821-15.709c0.0756-0.48349-0.30115-0.92179-0.79306-0.92179h-4.5858c-0.39381 0-0.72904 0.2864-0.78789 0.67461l-0.20341 1.2823-0.32185-0.46346c-0.99364-1.4421-3.2085-1.9259-5.4201-1.9259zm1.084 4.869c1.3034 0 2.3635 0.43174 3.0614 1.2488 0.70213 0.82544 0.97824 1.9771 0.77502 3.2469-0.44005 2.6222-2.5237 4.3823-5.1779 4.3823-1.33 0-2.3981-0.42586-3.0821-1.2359-0.6783-0.80443-0.9314-1.951-0.71839-3.2262 0.41624-2.5996 2.5282-4.4159 5.1419-4.4159z" fill="#179bd7" stroke-width=".03643"/>
</svg>
